weight_rom_tb.vcd
$date
	Sun May 25 15:24:59 2025
$end
$version
	Icarus Verilog
$end
$timescale
	1s
$end
$scope module weight_rom_tb $end
$var wire 1 ! weight_valid $end
$var wire 1 " rom_ready $end
$var wire 1 # load_done $end
$var wire 72 $ flattened_weight_out [71:0] $end
$var parameter 32 % INPUT_CHANNELS $end
$var parameter 32 & KERNEL_SIZE $end
$var parameter 32 ' NUM_FILTERS $end
$var parameter 32 ( WEIGHT_WIDTH $end
$var reg 2 ) channel_idx [1:0] $end
$var reg 1 * clk $end
$var reg 2 + filter_idx [1:0] $end
$var reg 7 , load_addr [6:0] $end
$var reg 8 - load_data [7:0] $end
$var reg 1 . load_enable $end
$var reg 1 / load_valid $end
$var reg 1 0 read_enable $end
$var reg 1 1 rst_n $end
$scope module dut $end
$var wire 2 2 channel_idx [1:0] $end
$var wire 1 * clk $end
$var wire 2 3 filter_idx [1:0] $end
$var wire 7 4 load_addr [6:0] $end
$var wire 8 5 load_data [7:0] $end
$var wire 1 . load_enable $end
$var wire 1 / load_valid $end
$var wire 1 0 read_enable $end
$var wire 1 1 rst_n $end
$var parameter 32 6 ADDR_WIDTH $end
$var parameter 0 7 INIT_FILE $end
$var parameter 32 8 INPUT_CHANNELS $end
$var parameter 32 9 KERNEL_SIZE $end
$var parameter 32 : NUM_FILTERS $end
$var parameter 128 ; TOTAL_WEIGHTS $end
$var parameter 64 < WEIGHTS_PER_CHANNEL $end
$var parameter 96 = WEIGHTS_PER_FILTER $end
$var parameter 32 > WEIGHT_WIDTH $end
$var reg 7 ? base_addr [6:0] $end
$var reg 2 @ current_channel_idx [1:0] $end
$var reg 2 A current_filter_idx [1:0] $end
$var reg 72 B flattened_weight_out [71:0] $end
$var reg 7 C load_counter [6:0] $end
$var reg 1 # load_done $end
$var reg 1 D loading_weights $end
$var reg 1 E reading_weights $end
$var reg 1 " rom_ready $end
$var reg 1 ! weight_valid $end
$var integer 32 F init_i [31:0] $end
$var integer 32 G read_idx [31:0] $end
$upscope $end
$scope begin $ivl_for_loop0 $end
$var integer 32 H i [31:0] $end
$upscope $end
$scope begin $ivl_for_loop1 $end
$var integer 32 I f [31:0] $end
$scope begin $ivl_for_loop2 $end
$var integer 32 J c [31:0] $end
$upscope $end
$upscope $end
$upscope $end
$enddefinitions $end
$comment Show the parameter values. $end
$dumpall
b1000 >
b11011 =
b1001 <
b1101100 ;
b100 :
b11 9
b11 8
b 7
b111 6
b1000 (
b100 '
b11 &
b11 %
$end
#0
$dumpvars
bx J
bx I
bx H
b0 G
b1101100 F
0E
0D
b0 C
b0 B
b0 A
b0 @
b0 ?
b0 5
b0 4
b0 3
b0 2
01
00
0/
0.
b0 -
b0 ,
b0 +
0*
b0 )
b0 $
0#
0"
0!
$end
#5
1*
#10
0*
#15
1*
#20
0*
#25
1*
#30
0*
#35
1*
#40
0*
#45
1"
11
1*
#50
0*
#55
1*
#60
0*
#65
1*
#70
0*
#75
1D
1.
1*
#80
0*
#85
0"
b0 H
1*
#90
0*
#95
b1 C
b1 H
1/
b1 -
b1 5
1*
#100
0*
#105
b10 C
b10 H
b10 -
b10 5
b1 ,
b1 4
1*
#110
0*
#115
b11 C
b11 H
b11 -
b11 5
b10 ,
b10 4
1*
#120
0*
#125
b100 C
b100 H
b100 -
b100 5
b11 ,
b11 4
1*
#130
0*
#135
b101 C
b101 H
b101 -
b101 5
b100 ,
b100 4
1*
#140
0*
#145
b110 C
b110 H
b110 -
b110 5
b101 ,
b101 4
1*
#150
0*
#155
b111 C
b111 H
b111 -
b111 5
b110 ,
b110 4
1*
#160
0*
#165
b1000 C
b1000 H
b1000 -
b1000 5
b111 ,
b111 4
1*
#170
0*
#175
b1001 C
b1001 H
b1001 -
b1001 5
b1000 ,
b1000 4
1*
#180
0*
#185
b1010 C
b1010 H
b1010 -
b1010 5
b1001 ,
b1001 4
1*
#190
0*
#195
b1011 C
b1011 H
b1011 -
b1011 5
b1010 ,
b1010 4
1*
#200
0*
#205
b1100 C
b1100 H
b1100 -
b1100 5
b1011 ,
b1011 4
1*
#210
0*
#215
b1101 C
b1101 H
b1101 -
b1101 5
b1100 ,
b1100 4
1*
#220
0*
#225
b1110 C
b1110 H
b1110 -
b1110 5
b1101 ,
b1101 4
1*
#230
0*
#235
b1111 C
b1111 H
b1111 -
b1111 5
b1110 ,
b1110 4
1*
#240
0*
#245
b10000 C
b10000 H
b10000 -
b10000 5
b1111 ,
b1111 4
1*
#250
0*
#255
b10001 C
b10001 H
b10001 -
b10001 5
b10000 ,
b10000 4
1*
#260
0*
#265
b10010 C
b10010 H
b10010 -
b10010 5
b10001 ,
b10001 4
1*
#270
0*
#275
b10011 C
b10011 H
b10011 -
b10011 5
b10010 ,
b10010 4
1*
#280
0*
#285
b10100 C
b10100 H
b10100 -
b10100 5
b10011 ,
b10011 4
1*
#290
0*
#295
b10101 C
b10101 H
b10101 -
b10101 5
b10100 ,
b10100 4
1*
#300
0*
#305
b10110 C
b10110 H
b10110 -
b10110 5
b10101 ,
b10101 4
1*
#310
0*
#315
b10111 C
b10111 H
b10111 -
b10111 5
b10110 ,
b10110 4
1*
#320
0*
#325
b11000 C
b11000 H
b11000 -
b11000 5
b10111 ,
b10111 4
1*
#330
0*
#335
b11001 C
b11001 H
b11001 -
b11001 5
b11000 ,
b11000 4
1*
#340
0*
#345
b11010 C
b11010 H
b11010 -
b11010 5
b11001 ,
b11001 4
1*
#350
0*
#355
b11011 C
b11011 H
b11011 -
b11011 5
b11010 ,
b11010 4
1*
#360
0*
#365
b11100 C
b11100 H
b11100 -
b11100 5
b11011 ,
b11011 4
1*
#370
0*
#375
b11101 C
b11101 H
b11101 -
b11101 5
b11100 ,
b11100 4
1*
#380
0*
#385
b11110 C
b11110 H
b11110 -
b11110 5
b11101 ,
b11101 4
1*
#390
0*
#395
b11111 C
b11111 H
b11111 -
b11111 5
b11110 ,
b11110 4
1*
#400
0*
#405
b100000 C
b100000 H
b100000 -
b100000 5
b11111 ,
b11111 4
1*
#410
0*
#415
b100001 C
b100001 H
b100001 -
b100001 5
b100000 ,
b100000 4
1*
#420
0*
#425
b100010 C
b100010 H
b100010 -
b100010 5
b100001 ,
b100001 4
1*
#430
0*
#435
b100011 C
b100011 H
b100011 -
b100011 5
b100010 ,
b100010 4
1*
#440
0*
#445
b100100 C
b100100 H
b100100 -
b100100 5
b100011 ,
b100011 4
1*
#450
0*
#455
b100101 C
b100101 H
b100101 -
b100101 5
b100100 ,
b100100 4
1*
#460
0*
#465
b100110 C
b100110 H
b100110 -
b100110 5
b100101 ,
b100101 4
1*
#470
0*
#475
b100111 C
b100111 H
b100111 -
b100111 5
b100110 ,
b100110 4
1*
#480
0*
#485
b101000 C
b101000 H
b101000 -
b101000 5
b100111 ,
b100111 4
1*
#490
0*
#495
b101001 C
b101001 H
b101001 -
b101001 5
b101000 ,
b101000 4
1*
#500
0*
#505
b101010 C
b101010 H
b101010 -
b101010 5
b101001 ,
b101001 4
1*
#510
0*
#515
b101011 C
b101011 H
b101011 -
b101011 5
b101010 ,
b101010 4
1*
#520
0*
#525
b101100 C
b101100 H
b101100 -
b101100 5
b101011 ,
b101011 4
1*
#530
0*
#535
b101101 C
b101101 H
b101101 -
b101101 5
b101100 ,
b101100 4
1*
#540
0*
#545
b101110 C
b101110 H
b101110 -
b101110 5
b101101 ,
b101101 4
1*
#550
0*
#555
b101111 C
b101111 H
b101111 -
b101111 5
b101110 ,
b101110 4
1*
#560
0*
#565
b110000 C
b110000 H
b110000 -
b110000 5
b101111 ,
b101111 4
1*
#570
0*
#575
b110001 C
b110001 H
b110001 -
b110001 5
b110000 ,
b110000 4
1*
#580
0*
#585
b110010 C
b110010 H
b110010 -
b110010 5
b110001 ,
b110001 4
1*
#590
0*
#595
b110011 C
b110011 H
b110011 -
b110011 5
b110010 ,
b110010 4
1*
#600
0*
#605
b110100 C
b110100 H
b110100 -
b110100 5
b110011 ,
b110011 4
1*
#610
0*
#615
b110101 C
b110101 H
b110101 -
b110101 5
b110100 ,
b110100 4
1*
#620
0*
#625
b110110 C
b110110 H
b110110 -
b110110 5
b110101 ,
b110101 4
1*
#630
0*
#635
b110111 C
b110111 H
b110111 -
b110111 5
b110110 ,
b110110 4
1*
#640
0*
#645
b111000 C
b111000 H
b111000 -
b111000 5
b110111 ,
b110111 4
1*
#650
0*
#655
b111001 C
b111001 H
b111001 -
b111001 5
b111000 ,
b111000 4
1*
#660
0*
#665
b111010 C
b111010 H
b111010 -
b111010 5
b111001 ,
b111001 4
1*
#670
0*
#675
b111011 C
b111011 H
b111011 -
b111011 5
b111010 ,
b111010 4
1*
#680
0*
#685
b111100 C
b111100 H
b111100 -
b111100 5
b111011 ,
b111011 4
1*
#690
0*
#695
b111101 C
b111101 H
b111101 -
b111101 5
b111100 ,
b111100 4
1*
#700
0*
#705
b111110 C
b111110 H
b111110 -
b111110 5
b111101 ,
b111101 4
1*
#710
0*
#715
b111111 C
b111111 H
b111111 -
b111111 5
b111110 ,
b111110 4
1*
#720
0*
#725
b1000000 C
b1000000 H
b1000000 -
b1000000 5
b111111 ,
b111111 4
1*
#730
0*
#735
b1000001 C
b1000001 H
b1000001 -
b1000001 5
b1000000 ,
b1000000 4
1*
#740
0*
#745
b1000010 C
b1000010 H
b1000010 -
b1000010 5
b1000001 ,
b1000001 4
1*
#750
0*
#755
b1000011 C
b1000011 H
b1000011 -
b1000011 5
b1000010 ,
b1000010 4
1*
#760
0*
#765
b1000100 C
b1000100 H
b1000100 -
b1000100 5
b1000011 ,
b1000011 4
1*
#770
0*
#775
b1000101 C
b1000101 H
b1000101 -
b1000101 5
b1000100 ,
b1000100 4
1*
#780
0*
#785
b1000110 C
b1000110 H
b1000110 -
b1000110 5
b1000101 ,
b1000101 4
1*
#790
0*
#795
b1000111 C
b1000111 H
b1000111 -
b1000111 5
b1000110 ,
b1000110 4
1*
#800
0*
#805
b1001000 C
b1001000 H
b1001000 -
b1001000 5
b1000111 ,
b1000111 4
1*
#810
0*
#815
b1001001 C
b1001001 H
b1001001 -
b1001001 5
b1001000 ,
b1001000 4
1*
#820
0*
#825
b1001010 C
b1001010 H
b1001010 -
b1001010 5
b1001001 ,
b1001001 4
1*
#830
0*
#835
b1001011 C
b1001011 H
b1001011 -
b1001011 5
b1001010 ,
b1001010 4
1*
#840
0*
#845
b1001100 C
b1001100 H
b1001100 -
b1001100 5
b1001011 ,
b1001011 4
1*
#850
0*
#855
b1001101 C
b1001101 H
b1001101 -
b1001101 5
b1001100 ,
b1001100 4
1*
#860
0*
#865
b1001110 C
b1001110 H
b1001110 -
b1001110 5
b1001101 ,
b1001101 4
1*
#870
0*
#875
b1001111 C
b1001111 H
b1001111 -
b1001111 5
b1001110 ,
b1001110 4
1*
#880
0*
#885
b1010000 C
b1010000 H
b1010000 -
b1010000 5
b1001111 ,
b1001111 4
1*
#890
0*
#895
b1010001 C
b1010001 H
b1010001 -
b1010001 5
b1010000 ,
b1010000 4
1*
#900
0*
#905
b1010010 C
b1010010 H
b1010010 -
b1010010 5
b1010001 ,
b1010001 4
1*
#910
0*
#915
b1010011 C
b1010011 H
b1010011 -
b1010011 5
b1010010 ,
b1010010 4
1*
#920
0*
#925
b1010100 C
b1010100 H
b1010100 -
b1010100 5
b1010011 ,
b1010011 4
1*
#930
0*
#935
b1010101 C
b1010101 H
b1010101 -
b1010101 5
b1010100 ,
b1010100 4
1*
#940
0*
#945
b1010110 C
b1010110 H
b1010110 -
b1010110 5
b1010101 ,
b1010101 4
1*
#950
0*
#955
b1010111 C
b1010111 H
b1010111 -
b1010111 5
b1010110 ,
b1010110 4
1*
#960
0*
#965
b1011000 C
b1011000 H
b1011000 -
b1011000 5
b1010111 ,
b1010111 4
1*
#970
0*
#975
b1011001 C
b1011001 H
b1011001 -
b1011001 5
b1011000 ,
b1011000 4
1*
#980
0*
#985
b1011010 C
b1011010 H
b1011010 -
b1011010 5
b1011001 ,
b1011001 4
1*
#990
0*
#995
b1011011 C
b1011011 H
b1011011 -
b1011011 5
b1011010 ,
b1011010 4
1*
#1000
0*
#1005
b1011100 C
b1011100 H
b1011100 -
b1011100 5
b1011011 ,
b1011011 4
1*
#1010
0*
#1015
b1011101 C
b1011101 H
b1011101 -
b1011101 5
b1011100 ,
b1011100 4
1*
#1020
0*
#1025
b1011110 C
b1011110 H
b1011110 -
b1011110 5
b1011101 ,
b1011101 4
1*
#1030
0*
#1035
b1011111 C
b1011111 H
b1011111 -
b1011111 5
b1011110 ,
b1011110 4
1*
#1040
0*
#1045
b1100000 C
b1100000 H
b1100000 -
b1100000 5
b1011111 ,
b1011111 4
1*
#1050
0*
#1055
b1100001 C
b1100001 H
b1100001 -
b1100001 5
b1100000 ,
b1100000 4
1*
#1060
0*
#1065
b1100010 C
b1100010 H
b1100010 -
b1100010 5
b1100001 ,
b1100001 4
1*
#1070
0*
#1075
b1100011 C
b1100011 H
b1100011 -
b1100011 5
b1100010 ,
b1100010 4
1*
#1080
0*
#1085
b1100100 C
b1100100 H
b1100100 -
b1100100 5
b1100011 ,
b1100011 4
1*
#1090
0*
#1095
b1100101 C
b1100101 H
b1100101 -
b1100101 5
b1100100 ,
b1100100 4
1*
#1100
0*
#1105
b1100110 C
b1100110 H
b1100110 -
b1100110 5
b1100101 ,
b1100101 4
1*
#1110
0*
#1115
b1100111 C
b1100111 H
b1100111 -
b1100111 5
b1100110 ,
b1100110 4
1*
#1120
0*
#1125
b1101000 C
b1101000 H
b1101000 -
b1101000 5
b1100111 ,
b1100111 4
1*
#1130
0*
#1135
b1101001 C
b1101001 H
b1101001 -
b1101001 5
b1101000 ,
b1101000 4
1*
#1140
0*
#1145
b1101010 C
b1101010 H
b1101010 -
b1101010 5
b1101001 ,
b1101001 4
1*
#1150
0*
#1155
b1101011 C
b1101011 H
b1101011 -
b1101011 5
b1101010 ,
b1101010 4
1*
#1160
0*
#1165
1#
0D
b1101100 C
b1101100 H
b1101100 -
b1101100 5
b1101011 ,
b1101011 4
1*
#1170
0*
#1175
0#
1"
0.
0/
1*
#1180
0*
#1185
1*
#1190
0*
#1195
1*
#1200
0*
#1205
1*
#1210
0*
#1215
1*
#1220
0*
#1225
1E
10
b0 J
b0 I
1*
#1230
0*
#1235
b1 G
b1 $
b1 B
00
1*
#1240
0*
#1245
b10 G
b1000000001 $
b1000000001 B
1*
#1250
0*
#1255
b11 G
b110000001000000001 $
b110000001000000001 B
1*
#1260
0*
#1265
b100 G
b100000000110000001000000001 $
b100000000110000001000000001 B
1*
#1270
0*
#1275
b101 G
b10100000100000000110000001000000001 $
b10100000100000000110000001000000001 B
1*
#1280
0*
#1285
b110 G
b1100000010100000100000000110000001000000001 $
b1100000010100000100000000110000001000000001 B
1*
#1290
0*
#1295
b111 G
b111000001100000010100000100000000110000001000000001 $
b111000001100000010100000100000000110000001000000001 B
1*
#1300
0*
#1305
b1000 G
b100000000111000001100000010100000100000000110000001000000001 $
b100000000111000001100000010100000100000000110000001000000001 B
1*
#1310
0*
#1315
b1001 G
b10010000100000000111000001100000010100000100000000110000001000000001 $
b10010000100000000111000001100000010100000100000000110000001000000001 B
1*
#1320
0*
#1325
b0 G
1!
0E
1*
#1330
0*
#1335
0!
1*
#1340
0*
#1345
b1001 ?
1E
b1 @
10
b1 )
b1 2
b1 J
1*
#1350
0*
#1355
b1 G
b10010000100000000111000001100000010100000100000000110000001000001010 $
b10010000100000000111000001100000010100000100000000110000001000001010 B
00
1*
#1360
0*
#1365
b10 G
b10010000100000000111000001100000010100000100000000110000101100001010 $
b10010000100000000111000001100000010100000100000000110000101100001010 B
1*
#1370
0*
#1375
b11 G
b10010000100000000111000001100000010100000100000011000000101100001010 $
b10010000100000000111000001100000010100000100000011000000101100001010 B
1*
#1380
0*
#1385
b100 G
b10010000100000000111000001100000010100001101000011000000101100001010 $
b10010000100000000111000001100000010100001101000011000000101100001010 B
1*
#1390
0*
#1395
b101 G
b10010000100000000111000001100000111000001101000011000000101100001010 $
b10010000100000000111000001100000111000001101000011000000101100001010 B
1*
#1400
0*
#1405
b110 G
b10010000100000000111000011110000111000001101000011000000101100001010 $
b10010000100000000111000011110000111000001101000011000000101100001010 B
1*
#1410
0*
#1415
b111 G
b10010000100000010000000011110000111000001101000011000000101100001010 $
b10010000100000010000000011110000111000001101000011000000101100001010 B
1*
#1420
0*
#1425
b1000 G
b10010001000100010000000011110000111000001101000011000000101100001010 $
b10010001000100010000000011110000111000001101000011000000101100001010 B
1*
#1430
0*
#1435
b1001 G
b100100001000100010000000011110000111000001101000011000000101100001010 $
b100100001000100010000000011110000111000001101000011000000101100001010 B
1*
#1440
0*
#1445
b0 G
1!
0E
1*
#1450
0*
#1455
0!
1*
#1460
0*
#1465
b10010 ?
1E
b10 @
10
b10 )
b10 2
b10 J
1*
#1470
0*
#1475
b1 G
b100100001000100010000000011110000111000001101000011000000101100010011 $
b100100001000100010000000011110000111000001101000011000000101100010011 B
00
1*
#1480
0*
#1485
b10 G
b100100001000100010000000011110000111000001101000011000001010000010011 $
b100100001000100010000000011110000111000001101000011000001010000010011 B
1*
#1490
0*
#1495
b11 G
b100100001000100010000000011110000111000001101000101010001010000010011 $
b100100001000100010000000011110000111000001101000101010001010000010011 B
1*
#1500
0*
#1505
b100 G
b100100001000100010000000011110000111000010110000101010001010000010011 $
b100100001000100010000000011110000111000010110000101010001010000010011 B
1*
#1510
0*
#1515
b101 G
b100100001000100010000000011110001011100010110000101010001010000010011 $
b100100001000100010000000011110001011100010110000101010001010000010011 B
1*
#1520
0*
#1525
b110 G
b100100001000100010000000110000001011100010110000101010001010000010011 $
b100100001000100010000000110000001011100010110000101010001010000010011 B
1*
#1530
0*
#1535
b111 G
b100100001000100011001000110000001011100010110000101010001010000010011 $
b100100001000100011001000110000001011100010110000101010001010000010011 B
1*
#1540
0*
#1545
b1000 G
b100100001101000011001000110000001011100010110000101010001010000010011 $
b100100001101000011001000110000001011100010110000101010001010000010011 B
1*
#1550
0*
#1555
b1001 G
b110110001101000011001000110000001011100010110000101010001010000010011 $
b110110001101000011001000110000001011100010110000101010001010000010011 B
1*
#1560
0*
#1565
b0 G
1!
0E
1*
#1570
0*
#1575
0!
1*
#1580
0*
#1585
b11011 ?
1E
b0 @
b1 A
10
b0 )
b0 2
b1 +
b1 3
b1 I
b0 J
1*
#1590
0*
#1595
b1 G
b110110001101000011001000110000001011100010110000101010001010000011100 $
b110110001101000011001000110000001011100010110000101010001010000011100 B
00
1*
#1600
0*
#1605
b10 G
b110110001101000011001000110000001011100010110000101010001110100011100 $
b110110001101000011001000110000001011100010110000101010001110100011100 B
1*
#1610
0*
#1615
b11 G
b110110001101000011001000110000001011100010110000111100001110100011100 $
b110110001101000011001000110000001011100010110000111100001110100011100 B
1*
#1620
0*
#1625
b100 G
b110110001101000011001000110000001011100011111000111100001110100011100 $
b110110001101000011001000110000001011100011111000111100001110100011100 B
1*
#1630
0*
#1635
b101 G
b110110001101000011001000110000010000000011111000111100001110100011100 $
b110110001101000011001000110000010000000011111000111100001110100011100 B
1*
#1640
0*
#1645
b110 G
b110110001101000011001001000010010000000011111000111100001110100011100 $
b110110001101000011001001000010010000000011111000111100001110100011100 B
1*
#1650
0*
#1655
b111 G
b110110001101000100010001000010010000000011111000111100001110100011100 $
b110110001101000100010001000010010000000011111000111100001110100011100 B
1*
#1660
0*
#1665
b1000 G
b110110010001100100010001000010010000000011111000111100001110100011100 $
b110110010001100100010001000010010000000011111000111100001110100011100 B
1*
#1670
0*
#1675
b1001 G
b1001000010001100100010001000010010000000011111000111100001110100011100 $
b1001000010001100100010001000010010000000011111000111100001110100011100 B
1*
#1680
0*
#1685
b0 G
1!
0E
1*
#1690
0*
#1695
0!
1*
#1700
0*
#1705
b100100 ?
1E
b1 @
10
b1 )
b1 2
b1 J
1*
#1710
0*
#1715
b1 G
b1001000010001100100010001000010010000000011111000111100001110100100101 $
b1001000010001100100010001000010010000000011111000111100001110100100101 B
00
1*
#1720
0*
#1725
b10 G
b1001000010001100100010001000010010000000011111000111100010011000100101 $
b1001000010001100100010001000010010000000011111000111100010011000100101 B
1*
#1730
0*
#1735
b11 G
b1001000010001100100010001000010010000000011111001001110010011000100101 $
b1001000010001100100010001000010010000000011111001001110010011000100101 B
1*
#1740
0*
#1745
b100 G
b1001000010001100100010001000010010000000101000001001110010011000100101 $
b1001000010001100100010001000010010000000101000001001110010011000100101 B
1*
#1750
0*
#1755
b101 G
b1001000010001100100010001000010010100100101000001001110010011000100101 $
b1001000010001100100010001000010010100100101000001001110010011000100101 B
1*
#1760
0*
#1765
b110 G
b1001000010001100100010001010100010100100101000001001110010011000100101 $
b1001000010001100100010001010100010100100101000001001110010011000100101 B
1*
#1770
0*
#1775
b111 G
b1001000010001100101011001010100010100100101000001001110010011000100101 $
b1001000010001100101011001010100010100100101000001001110010011000100101 B
1*
#1780
0*
#1785
b1000 G
b1001000010110000101011001010100010100100101000001001110010011000100101 $
b1001000010110000101011001010100010100100101000001001110010011000100101 B
1*
#1790
0*
#1795
b1001 G
b1011010010110000101011001010100010100100101000001001110010011000100101 $
b1011010010110000101011001010100010100100101000001001110010011000100101 B
1*
#1800
0*
#1805
b0 G
1!
0E
1*
#1810
0*
#1815
0!
1*
#1820
0*
#1825
b101101 ?
1E
b10 @
10
b10 )
b10 2
b10 J
1*
#1830
0*
#1835
b1 G
b1011010010110000101011001010100010100100101000001001110010011000101110 $
b1011010010110000101011001010100010100100101000001001110010011000101110 B
00
1*
#1840
0*
#1845
b10 G
b1011010010110000101011001010100010100100101000001001110010111100101110 $
b1011010010110000101011001010100010100100101000001001110010111100101110 B
1*
#1850
0*
#1855
b11 G
b1011010010110000101011001010100010100100101000001100000010111100101110 $
b1011010010110000101011001010100010100100101000001100000010111100101110 B
1*
#1860
0*
#1865
b100 G
b1011010010110000101011001010100010100100110001001100000010111100101110 $
b1011010010110000101011001010100010100100110001001100000010111100101110 B
1*
#1870
0*
#1875
b101 G
b1011010010110000101011001010100011001000110001001100000010111100101110 $
b1011010010110000101011001010100011001000110001001100000010111100101110 B
1*
#1880
0*
#1885
b110 G
b1011010010110000101011001100110011001000110001001100000010111100101110 $
b1011010010110000101011001100110011001000110001001100000010111100101110 B
1*
#1890
0*
#1895
b111 G
b1011010010110000110100001100110011001000110001001100000010111100101110 $
b1011010010110000110100001100110011001000110001001100000010111100101110 B
1*
#1900
0*
#1905
b1000 G
b1011010011010100110100001100110011001000110001001100000010111100101110 $
b1011010011010100110100001100110011001000110001001100000010111100101110 B
1*
#1910
0*
#1915
b1001 G
b1101100011010100110100001100110011001000110001001100000010111100101110 $
b1101100011010100110100001100110011001000110001001100000010111100101110 B
1*
#1920
0*
#1925
b0 G
1!
0E
1*
#1930
0*
#1935
0!
1*
#1940
0*
#1945
b110110 ?
1E
b0 @
b10 A
10
b0 )
b0 2
b10 +
b10 3
b10 I
b0 J
1*
#1950
0*
#1955
b1 G
b1101100011010100110100001100110011001000110001001100000010111100110111 $
b1101100011010100110100001100110011001000110001001100000010111100110111 B
00
1*
#1960
0*
#1965
b10 G
b1101100011010100110100001100110011001000110001001100000011100000110111 $
b1101100011010100110100001100110011001000110001001100000011100000110111 B
1*
#1970
0*
#1975
b11 G
b1101100011010100110100001100110011001000110001001110010011100000110111 $
b1101100011010100110100001100110011001000110001001110010011100000110111 B
1*
#1980
0*
#1985
b100 G
b1101100011010100110100001100110011001000111010001110010011100000110111 $
b1101100011010100110100001100110011001000111010001110010011100000110111 B
1*
#1990
0*
#1995
b101 G
b1101100011010100110100001100110011101100111010001110010011100000110111 $
b1101100011010100110100001100110011101100111010001110010011100000110111 B
1*
#2000
0*
#2005
b110 G
b1101100011010100110100001111000011101100111010001110010011100000110111 $
b1101100011010100110100001111000011101100111010001110010011100000110111 B
1*
#2010
0*
#2015
b111 G
b1101100011010100111101001111000011101100111010001110010011100000110111 $
b1101100011010100111101001111000011101100111010001110010011100000110111 B
1*
#2020
0*
#2025
b1000 G
b1101100011111000111101001111000011101100111010001110010011100000110111 $
b1101100011111000111101001111000011101100111010001110010011100000110111 B
1*
#2030
0*
#2035
b1001 G
b1111110011111000111101001111000011101100111010001110010011100000110111 $
b1111110011111000111101001111000011101100111010001110010011100000110111 B
1*
#2040
0*
#2045
b0 G
1!
0E
1*
#2050
0*
#2055
0!
1*
#2060
0*
#2065
b111111 ?
1E
b1 @
10
b1 )
b1 2
b1 J
1*
#2070
0*
#2075
b1 G
b1111110011111000111101001111000011101100111010001110010011100001000000 $
b1111110011111000111101001111000011101100111010001110010011100001000000 B
00
1*
#2080
0*
#2085
b10 G
b1111110011111000111101001111000011101100111010001110010100000101000000 $
b1111110011111000111101001111000011101100111010001110010100000101000000 B
1*
#2090
0*
#2095
b11 G
b1111110011111000111101001111000011101100111010010000100100000101000000 $
b1111110011111000111101001111000011101100111010010000100100000101000000 B
1*
#2100
0*
#2105
b100 G
b1111110011111000111101001111000011101101000011010000100100000101000000 $
b1111110011111000111101001111000011101101000011010000100100000101000000 B
1*
#2110
0*
#2115
b101 G
b1111110011111000111101001111000100010001000011010000100100000101000000 $
b1111110011111000111101001111000100010001000011010000100100000101000000 B
1*
#2120
0*
#2125
b110 G
b1111110011111000111101010001010100010001000011010000100100000101000000 $
b1111110011111000111101010001010100010001000011010000100100000101000000 B
1*
#2130
0*
#2135
b111 G
b1111110011111001000110010001010100010001000011010000100100000101000000 $
b1111110011111001000110010001010100010001000011010000100100000101000000 B
1*
#2140
0*
#2145
b1000 G
b1111110100011101000110010001010100010001000011010000100100000101000000 $
b1111110100011101000110010001010100010001000011010000100100000101000000 B
1*
#2150
0*
#2155
b1001 G
b10010000100011101000110010001010100010001000011010000100100000101000000 $
b10010000100011101000110010001010100010001000011010000100100000101000000 B
1*
#2160
0*
#2165
b0 G
1!
0E
1*
#2170
0*
#2175
0!
1*
#2180
0*
#2185
b1001000 ?
1E
b10 @
10
b10 )
b10 2
b10 J
1*
#2190
0*
#2195
b1 G
b10010000100011101000110010001010100010001000011010000100100000101001001 $
b10010000100011101000110010001010100010001000011010000100100000101001001 B
00
1*
#2200
0*
#2205
b10 G
b10010000100011101000110010001010100010001000011010000100100101001001001 $
b10010000100011101000110010001010100010001000011010000100100101001001001 B
1*
#2210
0*
#2215
b11 G
b10010000100011101000110010001010100010001000011010010110100101001001001 $
b10010000100011101000110010001010100010001000011010010110100101001001001 B
1*
#2220
0*
#2225
b100 G
b10010000100011101000110010001010100010001001100010010110100101001001001 $
b10010000100011101000110010001010100010001001100010010110100101001001001 B
1*
#2230
0*
#2235
b101 G
b10010000100011101000110010001010100110101001100010010110100101001001001 $
b10010000100011101000110010001010100110101001100010010110100101001001001 B
1*
#2240
0*
#2245
b110 G
b10010000100011101000110010011100100110101001100010010110100101001001001 $
b10010000100011101000110010011100100110101001100010010110100101001001001 B
1*
#2250
0*
#2255
b111 G
b10010000100011101001111010011100100110101001100010010110100101001001001 $
b10010000100011101001111010011100100110101001100010010110100101001001001 B
1*
#2260
0*
#2265
b1000 G
b10010000101000001001111010011100100110101001100010010110100101001001001 $
b10010000101000001001111010011100100110101001100010010110100101001001001 B
1*
#2270
0*
#2275
b1001 G
b10100010101000001001111010011100100110101001100010010110100101001001001 $
b10100010101000001001111010011100100110101001100010010110100101001001001 B
1*
#2280
0*
#2285
b0 G
1!
0E
1*
#2290
0*
#2295
0!
1*
#2300
0*
#2305
b1010001 ?
1E
b0 @
b11 A
10
b0 )
b0 2
b11 +
b11 3
b11 I
b0 J
1*
#2310
0*
#2315
b1 G
b10100010101000001001111010011100100110101001100010010110100101001010010 $
b10100010101000001001111010011100100110101001100010010110100101001010010 B
00
1*
#2320
0*
#2325
b10 G
b10100010101000001001111010011100100110101001100010010110101001101010010 $
b10100010101000001001111010011100100110101001100010010110101001101010010 B
1*
#2330
0*
#2335
b11 G
b10100010101000001001111010011100100110101001100010101000101001101010010 $
b10100010101000001001111010011100100110101001100010101000101001101010010 B
1*
#2340
0*
#2345
b100 G
b10100010101000001001111010011100100110101010101010101000101001101010010 $
b10100010101000001001111010011100100110101010101010101000101001101010010 B
1*
#2350
0*
#2355
b101 G
b10100010101000001001111010011100101011001010101010101000101001101010010 $
b10100010101000001001111010011100101011001010101010101000101001101010010 B
1*
#2360
0*
#2365
b110 G
b10100010101000001001111010101110101011001010101010101000101001101010010 $
b10100010101000001001111010101110101011001010101010101000101001101010010 B
1*
#2370
0*
#2375
b111 G
b10100010101000001011000010101110101011001010101010101000101001101010010 $
b10100010101000001011000010101110101011001010101010101000101001101010010 B
1*
#2380
0*
#2385
b1000 G
b10100010101100101011000010101110101011001010101010101000101001101010010 $
b10100010101100101011000010101110101011001010101010101000101001101010010 B
1*
#2390
0*
#2395
b1001 G
b10110100101100101011000010101110101011001010101010101000101001101010010 $
b10110100101100101011000010101110101011001010101010101000101001101010010 B
1*
#2400
0*
#2405
b0 G
1!
0E
1*
#2410
0*
#2415
0!
1*
#2420
0*
#2425
b1011010 ?
1E
b1 @
10
b1 )
b1 2
b1 J
1*
#2430
0*
#2435
b1 G
b10110100101100101011000010101110101011001010101010101000101001101011011 $
b10110100101100101011000010101110101011001010101010101000101001101011011 B
00
1*
#2440
0*
#2445
b10 G
b10110100101100101011000010101110101011001010101010101000101110001011011 $
b10110100101100101011000010101110101011001010101010101000101110001011011 B
1*
#2450
0*
#2455
b11 G
b10110100101100101011000010101110101011001010101010111010101110001011011 $
b10110100101100101011000010101110101011001010101010111010101110001011011 B
1*
#2460
0*
#2465
b100 G
b10110100101100101011000010101110101011001011110010111010101110001011011 $
b10110100101100101011000010101110101011001011110010111010101110001011011 B
1*
#2470
0*
