rtl_model/weight_tb.vcd
$date
	Sun May 25 19:01:00 2025
$end
$version
	Icarus Verilog
$end
$timescale
	1ps
$end
$scope module weight_tb $end
$var wire 1 ! weight_valid $end
$var wire 144 " flattened_weight_out [143:0] $end
$var parameter 152 # INIT_FILE $end
$var parameter 32 $ INPUT_CHANNELS $end
$var parameter 32 % KERNEL_SIZE $end
$var parameter 32 & NUM_FILTERS $end
$var parameter 32 ' WEIGHT_WIDTH $end
$var reg 2 ( channel_idx [1:0] $end
$var reg 1 ) clk $end
$var reg 2 * filter_idx [1:0] $end
$var reg 1 + read_enable $end
$var reg 1 , rst_n $end
$var integer 32 - i [31:0] $end
$var integer 32 . j [31:0] $end
$var integer 32 / pass_count [31:0] $end
$var integer 32 0 test_count [31:0] $end
$scope module dut $end
$var wire 2 1 channel_idx [1:0] $end
$var wire 1 ) clk $end
$var wire 2 2 filter_idx [1:0] $end
$var wire 1 + read_enable $end
$var wire 1 , rst_n $end
$var parameter 32 3 ADDR_WIDTH $end
$var parameter 152 4 INIT_FILE $end
$var parameter 32 5 INPUT_CHANNELS $end
$var parameter 32 6 KERNEL_SIZE $end
$var parameter 32 7 NUM_FILTERS $end
$var parameter 128 8 TOTAL_WEIGHTS $end
$var parameter 64 9 WEIGHTS_PER_CHANNEL $end
$var parameter 96 : WEIGHTS_PER_FILTER $end
$var parameter 32 ; WEIGHT_WIDTH $end
$var reg 7 < base_addr [6:0] $end
$var reg 2 = current_channel_idx [1:0] $end
$var reg 2 > current_filter_idx [1:0] $end
$var reg 144 ? flattened_weight_out [143:0] $end
$var reg 1 @ reading_weights $end
$var reg 1 ! weight_valid $end
$var integer 32 A read_idx [31:0] $end
$upscope $end
$scope task test_all_combinations $end
$upscope $end
$scope task test_basic_reading $end
$upscope $end
$scope task test_read_enable_control $end
$upscope $end
$scope task test_reset_functionality $end
$upscope $end
$scope task test_timing $end
$var integer 32 B duration [31:0] $end
$var integer 32 C end_time [31:0] $end
$var integer 32 D start_time [31:0] $end
$upscope $end
$scope task wait_for_valid $end
$var integer 32 E timeout [31:0] $end
$upscope $end
$upscope $end
$enddefinitions $end
$comment Show the parameter values. $end
$dumpall
b10000 ;
b11011 :
b1001 9
b1010001 8
b11 7
b11 6
b11 5
b1110111011001010110100101100111011010000111010001110011010111110110010101111000011000010110110101110000011011000110010100101110011011010110010101101101 4
b111 3
b10000 '
b11 &
b11 %
b11 $
b1110111011001010110100101100111011010000111010001110011010111110110010101111000011000010110110101110000011011000110010100101110011011010110010101101101 #
$end
#0
$dumpvars
bx E
bx D
bx C
bx B
b0 A
0@
b0 ?
b0 >
b0 =
b0 <
b0 2
b0 1
b0 0
b0 /
bx .
bx -
0,
0+
b0 *
0)
b0 (
b0 "
0!
$end
#5000
1)
#10000
0)
1,
#15000
1)
#20000
0)
b0 E
1+
#25000
1@
1)
#30000
0)
b1010 E
#35000
b1 A
b0xxxxxxxxxxxxxxxx "
b0xxxxxxxxxxxxxxxx ?
1)
#40000
0)
b10100 E
#45000
b10 A
b0xxxxxxxxxxxxxxxxxxxxxxxxxxxxxxxx "
b0xxxxxxxxxxxxxxxxxxxxxxxxxxxxxxxx ?
1)
#50000
0)
b11110 E
#55000
b11 A
b0xxxxxxxxxxxxxxxxxxxxxxxxxxxxxxxxxxxxxxxxxxxxxxxx "
b0xxxxxxxxxxxxxxxxxxxxxxxxxxxxxxxxxxxxxxxxxxxxxxxx ?
1)
#60000
0)
b101000 E
#65000
b100 A
b0xxxxxxxxxxxxxxxxxxxxxxxxxxxxxxxxxxxxxxxxxxxxxxxxxxxxxxxxxxxxxxxx "
b0xxxxxxxxxxxxxxxxxxxxxxxxxxxxxxxxxxxxxxxxxxxxxxxxxxxxxxxxxxxxxxxx ?
1)
#70000
0)
b110010 E
#75000
b101 A
b0xxxxxxxxxxxxxxxxxxxxxxxxxxxxxxxxxxxxxxxxxxxxxxxxxxxxxxxxxxxxxxxxxxxxxxxxxxxxxxxx "
b0xxxxxxxxxxxxxxxxxxxxxxxxxxxxxxxxxxxxxxxxxxxxxxxxxxxxxxxxxxxxxxxxxxxxxxxxxxxxxxxx ?
1)
#80000
0)
b111100 E
#85000
b110 A
b0xxxxxxxxxxxxxxxxxxxxxxxxxxxxxxxxxxxxxxxxxxxxxxxxxxxxxxxxxxxxxxxxxxxxxxxxxxxxxxxxxxxxxxxxxxxxxxxx "
b0xxxxxxxxxxxxxxxxxxxxxxxxxxxxxxxxxxxxxxxxxxxxxxxxxxxxxxxxxxxxxxxxxxxxxxxxxxxxxxxxxxxxxxxxxxxxxxxx ?
1)
#90000
0)
b1000110 E
#95000
b111 A
b0xxxxxxxxxxxxxxxxxxxxxxxxxxxxxxxxxxxxxxxxxxxxxxxxxxxxxxxxxxxxxxxxxxxxxxxxxxxxxxxxxxxxxxxxxxxxxxxxxxxxxxxxxxxxxxxx "
b0xxxxxxxxxxxxxxxxxxxxxxxxxxxxxxxxxxxxxxxxxxxxxxxxxxxxxxxxxxxxxxxxxxxxxxxxxxxxxxxxxxxxxxxxxxxxxxxxxxxxxxxxxxxxxxxx ?
1)
#100000
0)
b1010000 E
#105000
b1000 A
b0xxxxxxxxxxxxxxxxxxxxxxxxxxxxxxxxxxxxxxxxxxxxxxxxxxxxxxxxxxxxxxxxxxxxxxxxxxxxxxxxxxxxxxxxxxxxxxxxxxxxxxxxxxxxxxxxxxxxxxxxxxxxxxxx "
b0xxxxxxxxxxxxxxxxxxxxxxxxxxxxxxxxxxxxxxxxxxxxxxxxxxxxxxxxxxxxxxxxxxxxxxxxxxxxxxxxxxxxxxxxxxxxxxxxxxxxxxxxxxxxxxxxxxxxxxxxxxxxxxxx ?
1)
#110000
0)
b1011010 E
#115000
b1001 A
bx "
bx ?
1)
#120000
0)
b1100100 E
#125000
b0 A
1!
0@
1)
#130000
0)
0+
b1 0
b1 /
b1101110 E
#135000
0!
1)
#140000
0)
#145000
1)
#150000
0)
b0 E
1+
b0 .
b0 -
#155000
1@
1)
#160000
0)
b1010 E
#165000
b1 A
1)
#170000
0)
b10100 E
#175000
b10 A
1)
#180000
0)
b11110 E
#185000
b11 A
1)
#190000
0)
b101000 E
#195000
b100 A
1)
#200000
0)
b110010 E
#205000
b101 A
1)
#210000
0)
b111100 E
#215000
b110 A
1)
#220000
0)
b1000110 E
#225000
b111 A
1)
#230000
0)
b1010000 E
#235000
b1000 A
1)
#240000
0)
b1011010 E
#245000
b1001 A
1)
#250000
0)
b1100100 E
#255000
b0 A
1!
0@
1)
#260000
0)
0+
b10 0
b10 /
b1101110 E
#265000
0!
1)
#270000
0)
#275000
1)
#280000
0)
b0 E
1+
b1 (
b1 1
b1 .
#285000
b1001 <
1@
b1 =
1)
#290000
0)
b1010 E
#295000
b1 A
1)
#300000
0)
b10100 E
#305000
b10 A
1)
#310000
0)
b11110 E
#315000
b11 A
1)
#320000
0)
b101000 E
#325000
b100 A
1)
#330000
0)
b110010 E
#335000
b101 A
1)
#340000
0)
b111100 E
#345000
b110 A
1)
#350000
0)
b1000110 E
#355000
b111 A
1)
#360000
0)
b1010000 E
#365000
b1000 A
1)
#370000
0)
b1011010 E
#375000
b1001 A
1)
#380000
0)
b1100100 E
#385000
b0 A
1!
0@
1)
#390000
0)
0+
b11 0
b11 /
b1101110 E
#395000
0!
1)
#400000
0)
#405000
1)
#410000
0)
b0 E
1+
b10 (
b10 1
b10 .
#415000
b10010 <
1@
b10 =
1)
#420000
0)
b1010 E
#425000
b1 A
1)
#430000
0)
b10100 E
#435000
b10 A
1)
#440000
0)
b11110 E
#445000
b11 A
1)
#450000
0)
b101000 E
#455000
b100 A
1)
#460000
0)
b110010 E
#465000
b101 A
1)
#470000
0)
b111100 E
#475000
b110 A
1)
#480000
0)
b1000110 E
#485000
b111 A
1)
#490000
0)
b1010000 E
#495000
b1000 A
1)
#500000
0)
b1011010 E
#505000
b1001 A
1)
#510000
0)
b1100100 E
#515000
b0 A
1!
0@
1)
#520000
0)
0+
b100 0
b100 /
b1101110 E
#525000
0!
1)
#530000
0)
#535000
1)
#540000
0)
b0 E
1+
b0 (
b0 1
b1 *
b1 2
b1 -
b0 .
#545000
b11011 <
1@
b0 =
b1 >
1)
#550000
0)
b1010 E
#555000
b1 A
1)
#560000
0)
b10100 E
#565000
b10 A
1)
#570000
0)
b11110 E
#575000
b11 A
1)
#580000
0)
b101000 E
#585000
b100 A
1)
#590000
0)
b110010 E
#595000
b101 A
1)
#600000
0)
b111100 E
#605000
b110 A
1)
#610000
0)
b1000110 E
#615000
b111 A
1)
#620000
0)
b1010000 E
#625000
b1000 A
1)
#630000
0)
b1011010 E
#635000
b1001 A
1)
#640000
0)
b1100100 E
#645000
b0 A
1!
0@
1)
#650000
0)
0+
b101 0
b101 /
b1101110 E
#655000
0!
1)
#660000
0)
#665000
1)
#670000
0)
b0 E
1+
b1 (
b1 1
b1 .
#675000
b100100 <
1@
b1 =
1)
#680000
0)
b1010 E
#685000
b1 A
1)
#690000
0)
b10100 E
#695000
b10 A
1)
#700000
0)
b11110 E
#705000
b11 A
1)
#710000
0)
b101000 E
#715000
b100 A
1)
#720000
0)
b110010 E
#725000
b101 A
1)
#730000
0)
b111100 E
#735000
b110 A
1)
#740000
0)
b1000110 E
#745000
b111 A
1)
#750000
0)
b1010000 E
#755000
b1000 A
1)
#760000
0)
b1011010 E
#765000
b1001 A
1)
#770000
0)
b1100100 E
#775000
b0 A
1!
0@
1)
#780000
0)
0+
b110 0
b110 /
b1101110 E
#785000
0!
1)
#790000
0)
#795000
1)
#800000
0)
b0 E
1+
b10 (
b10 1
b10 .
#805000
b101101 <
1@
b10 =
1)
#810000
0)
b1010 E
#815000
b1 A
1)
#820000
0)
b10100 E
#825000
b10 A
1)
#830000
0)
b11110 E
#835000
b11 A
1)
#840000
0)
b101000 E
#845000
b100 A
1)
#850000
0)
b110010 E
#855000
b101 A
1)
#860000
0)
b111100 E
#865000
b110 A
1)
#870000
0)
b1000110 E
#875000
b111 A
1)
#880000
0)
b1010000 E
#885000
b1000 A
1)
#890000
0)
b1011010 E
#895000
b1001 A
1)
#900000
0)
b1100100 E
#905000
b0 A
1!
0@
1)
#910000
0)
0+
b111 0
b111 /
b1101110 E
#915000
0!
1)
#920000
0)
#925000
1)
#930000
0)
b0 E
1+
b0 (
b0 1
b10 *
b10 2
b10 -
b0 .
#935000
b110110 <
1@
b0 =
b10 >
1)
#940000
0)
b1010 E
#945000
b1 A
1)
#950000
0)
b10100 E
#955000
b10 A
1)
#960000
0)
b11110 E
#965000
b11 A
1)
#970000
0)
b101000 E
#975000
b100 A
1)
#980000
0)
b110010 E
#985000
b101 A
1)
#990000
0)
b111100 E
#995000
b110 A
1)
#1000000
0)
b1000110 E
#1005000
b111 A
1)
#1010000
0)
b1010000 E
#1015000
b1000 A
1)
#1020000
0)
b1011010 E
#1025000
b1001 A
1)
#1030000
0)
b1100100 E
#1035000
b0 A
1!
0@
1)
#1040000
0)
0+
b1000 0
b1000 /
b1101110 E
#1045000
0!
1)
#1050000
0)
#1055000
1)
#1060000
0)
b0 E
1+
b1 (
b1 1
b1 .
#1065000
b111111 <
1@
b1 =
1)
#1070000
0)
b1010 E
#1075000
b1 A
1)
#1080000
0)
b10100 E
#1085000
b10 A
1)
#1090000
0)
b11110 E
#1095000
b11 A
1)
#1100000
0)
b101000 E
#1105000
b100 A
1)
#1110000
0)
b110010 E
#1115000
b101 A
1)
#1120000
0)
b111100 E
#1125000
b110 A
1)
#1130000
0)
b1000110 E
#1135000
b111 A
1)
#1140000
0)
b1010000 E
#1145000
b1000 A
1)
#1150000
0)
b1011010 E
#1155000
b1001 A
1)
#1160000
0)
b1100100 E
#1165000
b0 A
1!
0@
1)
#1170000
0)
0+
b1001 0
b1001 /
b1101110 E
#1175000
0!
1)
#1180000
0)
#1185000
1)
#1190000
0)
b0 E
1+
b10 (
b10 1
b10 .
#1195000
b1001000 <
1@
b10 =
1)
#1200000
0)
b1010 E
#1205000
b1 A
1)
#1210000
0)
b10100 E
#1215000
b10 A
1)
#1220000
0)
b11110 E
#1225000
b11 A
1)
#1230000
0)
b101000 E
#1235000
b100 A
1)
#1240000
0)
b110010 E
#1245000
b101 A
1)
#1250000
0)
b111100 E
#1255000
b110 A
1)
#1260000
0)
b1000110 E
#1265000
b111 A
1)
#1270000
0)
b1010000 E
#1275000
b1000 A
1)
#1280000
0)
b1011010 E
#1285000
b1001 A
1)
#1290000
0)
b1100100 E
#1295000
b0 A
1!
0@
1)
#1300000
0)
0+
b1010 0
b1010 /
b1101110 E
#1305000
0!
1)
#1310000
0)
#1315000
1)
#1320000
0)
b1 (
b1 1
b1 *
b1 2
b11 -
b11 .
#1325000
1)
#1330000
0)
#1335000
1)
#1340000
0)
#1345000
1)
#1350000
0)
#1355000
1)
#1360000
0)
#1365000
1)
#1370000
0)
#1375000
1)
#1380000
0)
#1385000
1)
#1390000
0)
#1395000
1)
#1400000
0)
#1405000
1)
#1410000
0)
#1415000
1)
#1420000
0)
b0 E
1+
b1011 0
b1011 /
#1425000
b100100 <
1@
b1 =
b1 >
1)
#1430000
0)
b1010 E
#1435000
b1 A
1)
#1440000
0)
b10100 E
#1445000
b10 A
1)
#1450000
0)
b11110 E
#1455000
b11 A
1)
#1460000
0)
b101000 E
#1465000
b100 A
1)
#1470000
0)
b110010 E
#1475000
b101 A
1)
#1480000
0)
b111100 E
#1485000
b110 A
1)
#1490000
0)
b1000110 E
#1495000
b111 A
1)
#1500000
0)
b1010000 E
#1505000
b1000 A
1)
#1510000
0)
b1011010 E
#1515000
b1001 A
1)
#1520000
0)
b1100100 E
#1525000
b0 A
1!
0@
1)
#1530000
0)
0+
b1100 0
b1100 /
b1101110 E
#1535000
0!
1)
#1540000
0)
#1545000
1)
#1550000
0)
1+
b10 (
b10 1
b10 *
b10 2
#1555000
b1001000 <
1@
b10 =
b10 >
1)
#1560000
0)
#1565000
b1 A
1)
#1570000
0)
#1575000
b10 A
1)
#1580000
b0 <
b0 A
0@
b0 =
b0 >
b0 "
b0 ?
0)
0,
#1585000
1)
#1590000
0)
#1595000
1)
#1600000
0)
1,
#1605000
b1001000 <
1@
b10 =
b10 >
1)
#1610000
0)
#1615000
b1 A
b0xxxxxxxxxxxxxxxx "
b0xxxxxxxxxxxxxxxx ?
1)
#1620000
0)
0+
b1101 0
#1625000
b10 A
b0xxxxxxxxxxxxxxxxxxxxxxxxxxxxxxxx "
b0xxxxxxxxxxxxxxxxxxxxxxxxxxxxxxxx ?
1)
#1630000
0)
#1635000
b11 A
b0xxxxxxxxxxxxxxxxxxxxxxxxxxxxxxxxxxxxxxxxxxxxxxxx "
b0xxxxxxxxxxxxxxxxxxxxxxxxxxxxxxxxxxxxxxxxxxxxxxxx ?
1)
#1640000
0)
b0 E
b11001101000 D
1+
b0 (
b0 1
b0 *
b0 2
#1645000
b100 A
b0xxxxxxxxxxxxxxxxxxxxxxxxxxxxxxxxxxxxxxxxxxxxxxxxxxxxxxxxxxxxxxxx "
b0xxxxxxxxxxxxxxxxxxxxxxxxxxxxxxxxxxxxxxxxxxxxxxxxxxxxxxxxxxxxxxxx ?
1)
#1650000
0)
b1010 E
#1655000
b101 A
b0xxxxxxxxxxxxxxxxxxxxxxxxxxxxxxxxxxxxxxxxxxxxxxxxxxxxxxxxxxxxxxxxxxxxxxxxxxxxxxxx "
b0xxxxxxxxxxxxxxxxxxxxxxxxxxxxxxxxxxxxxxxxxxxxxxxxxxxxxxxxxxxxxxxxxxxxxxxxxxxxxxxx ?
1)
#1660000
0)
b10100 E
#1665000
b110 A
b0xxxxxxxxxxxxxxxxxxxxxxxxxxxxxxxxxxxxxxxxxxxxxxxxxxxxxxxxxxxxxxxxxxxxxxxxxxxxxxxxxxxxxxxxxxxxxxxx "
b0xxxxxxxxxxxxxxxxxxxxxxxxxxxxxxxxxxxxxxxxxxxxxxxxxxxxxxxxxxxxxxxxxxxxxxxxxxxxxxxxxxxxxxxxxxxxxxxx ?
1)
#1670000
0)
b11110 E
#1675000
b111 A
b0xxxxxxxxxxxxxxxxxxxxxxxxxxxxxxxxxxxxxxxxxxxxxxxxxxxxxxxxxxxxxxxxxxxxxxxxxxxxxxxxxxxxxxxxxxxxxxxxxxxxxxxxxxxxxxxx "
b0xxxxxxxxxxxxxxxxxxxxxxxxxxxxxxxxxxxxxxxxxxxxxxxxxxxxxxxxxxxxxxxxxxxxxxxxxxxxxxxxxxxxxxxxxxxxxxxxxxxxxxxxxxxxxxxx ?
1)
#1680000
0)
b101000 E
#1685000
b1000 A
b0xxxxxxxxxxxxxxxxxxxxxxxxxxxxxxxxxxxxxxxxxxxxxxxxxxxxxxxxxxxxxxxxxxxxxxxxxxxxxxxxxxxxxxxxxxxxxxxxxxxxxxxxxxxxxxxxxxxxxxxxxxxxxxxx "
b0xxxxxxxxxxxxxxxxxxxxxxxxxxxxxxxxxxxxxxxxxxxxxxxxxxxxxxxxxxxxxxxxxxxxxxxxxxxxxxxxxxxxxxxxxxxxxxxxxxxxxxxxxxxxxxxxxxxxxxxxxxxxxxxx ?
1)
#1690000
0)
b110010 E
#1695000
b1001 A
bx "
bx ?
1)
#1700000
0)
b111100 E
#1705000
b0 A
1!
0@
1)
#1710000
0)
0+
b1110 0
b1101 /
b1000110 B
b11010101110 C
b1000110 E
#1715000
0!
1)
